-------------------------------------------------------------------------------
Test set: com.example.devops.web.WelcomeControllerTest
-------------------------------------------------------------------------------
Tests run: 1, Failures: 0, Errors: 0, Skipped: 0, Time elapsed: 4.514 s - in com.example.devops.web.WelcomeControllerTest
